{"page":1,"total_results":217,"total_pages":11,"results":[{"popularity":20.756,"vote_count":0,"video":true,"poster_path":"\/z8DcSd6oU5WfrOAasCdqQgpDcws.jpg","id":623239,"adult":false,"backdrop_path":"\/g7Jbx0fEp4XxHIUA0HYAwrZ64o.jpg","original_language":"en","original_title":"WWE Clash of Champions 2019","genre_ids":[28,18,10770],"title":"WWE Clash of Champions 2019","vote_average":0,"overview":"The third event under the Clash of Champions WWE chronology, this year's event will be held at the Spectrum Center in Charlotte, North Carolina on September 15, 2019.","release_date":"2019-09-15"},{"popularity":2.489,"id":616054,"video":true,"vote_count":5,"vote_average":8.3,"title":"WWE SummerSlam 2019","release_date":"2019-08-11","original_language":"en","original_title":"WWE SummerSlam 2019","genre_ids":[28,18],"backdrop_path":"\/lyf580sAlaXCzCIDQgMBNPs7FUY.jpg","adult":false,"overview":"SummerSlam is the thirty-second professional wrestling pay-per-view under the SummerSlam banner and is a WWE Network event produced by WWE for their Raw, SmackDown, and 205 Live brands. The event took place on August 11, 2019, at the Scotiabank Arena in Toronto, Ontario, Canada. This is the second event held in this particular venue (the other time being the 2004 event).","poster_path":"\/44APxybaMMoG0hTStztU4pvHeLo.jpg"},{"popularity":4.042,"id":23807,"video":false,"vote_count":36,"vote_average":5.3,"title":"2019: After the Fall of New York","release_date":"1984-12-07","original_language":"en","original_title":"2019 - Dopo la caduta di New York","genre_ids":[28,27,878],"backdrop_path":"\/4yxwrXh0X0RTkSGJ43mXNgMgMDj.jpg","adult":false,"overview":"After a nuclear war, society breaks down into two groups, the evil Euraks and the rebel Federation. A mercenary named Parsifal is hired by the Federation to infiltrate New York City, which is controlled by the Euraks, to rescue the only fertile woman left on Earth.","poster_path":"\/lRbhD8NQfvx58804e3WG7AhhF8Z.jpg"},{"popularity":2.026,"id":611048,"video":false,"vote_count":3,"vote_average":8.5,"title":"WWE Extreme Rules 2019","release_date":"2019-07-14","original_language":"en","original_title":"WWE Extreme Rules 2019","genre_ids":[28,18],"backdrop_path":"\/8MZKF3ibAIkVgeOBdT8Gi32NxWs.jpg","adult":false,"overview":"Extreme Rules 2019 is an upcoming professional wrestling pay-per-view and WWE Network event produced by WWE for their Raw and SmackDown brands. It will take place on July 14, 2019 at the Wells Fargo Center in Philadelphia, Pennsylvania. It will be the eleventh event under the Extreme Rules chronology.","poster_path":"\/5iI0mAwkduTOpHeMq6LkcGjDUuB.jpg"},{"popularity":1.695,"vote_count":1,"video":false,"poster_path":"\/nMavcWTiTzpqeq7W5z5cpVzOnHZ.jpg","id":627937,"adult":false,"backdrop_path":"\/MSmj0iYPbIVePjyefanz7bXjd9.jpg","original_language":"da","original_title":"Zulu Comedy Galla 2019","genre_ids":[35],"title":"Zulu Comedy Galla 2019","vote_average":6,"overview":"","release_date":"2019-09-01"},{"popularity":1.844,"id":616393,"video":true,"vote_count":3,"vote_average":9.7,"title":"NXT TakeOver: Toronto 2019","release_date":"2019-08-10","original_language":"en","original_title":"NXT TakeOver: Toronto 2019","genre_ids":[28,18],"backdrop_path":"\/1Ju9uUe6LH3SHUoC9Yn1JpuMfac.jpg","adult":false,"overview":"NXT TakeOver: Toronto is an upcoming professional wrestling show and WWE Network event produced by WWE for their NXT brand. It will take place on August 10, 2019 at the Scotiabank Arena in Toronto, Ontario, Canada.","poster_path":"\/jyeMCCVBOy5wqmSZ9b0L5BBoyFx.jpg"},{"popularity":1.467,"id":582484,"video":true,"vote_count":5,"vote_average":7.6,"title":"WWE Elimination Chamber 2019","release_date":"2019-02-17","original_language":"en","original_title":"WWE Elimination Chamber 2019","genre_ids":[],"backdrop_path":"\/w5QcWehgYcO3riH87JZnWufR9J4.jpg","adult":false,"overview":"Elimination Chamber (2019) is an upcoming professional wrestling pay-per-view event and WWE Network event produced by WWE for their Raw, SmackDown, and 205 Live brands. It will take place on February 17, 2019, at the Toyota Center in Houston, Texas. It will be the ninth event promoted under the Elimination Chamber chronology. The event will crown the inaugural holders of the WWE Women's Tag Team Championship.","poster_path":"\/hV4waFF53pvvXGabUxjFBLMiWq8.jpg"},{"popularity":1.106,"vote_count":0,"video":false,"poster_path":null,"id":627726,"adult":false,"backdrop_path":"\/rRAKjft6oVHtDW5iQFXIba2LG5c.jpg","original_language":"en","original_title":"lowlands 2019","genre_ids":[],"title":"lowlands 2019","vote_average":0,"overview":"Taking place from 16 to 18 August at Walibi Holland in Biddinghuizen, A Campingflight To Lowlands Paradise is Hollands biggest most adventurous cultural outdoor event, that maintains an intimate vibe and friendly atmosphere as a township with thousands of inhabitants arises in the middle of the country for the festival.","release_date":"2019-08-18"},{"popularity":1.478,"id":607378,"video":true,"vote_count":3,"vote_average":7,"title":"WWE Super ShowDown 2019","release_date":"2019-06-07","original_language":"en","original_title":"WWE Super ShowDown 2019","genre_ids":[10751,28],"backdrop_path":"\/rjBC30agn3djBtSrZTkFUB7HMYW.jpg","adult":false,"overview":"WWE Super Showdown took place on June 7th, 2019. It was WWE's third show from Saudi Arabia. The show featured for the first time ever The Undertaker vs. Goldberg. Also, both the WWE Championship and the Universal Championship are on the line, with a 50 Man Battle Royale, WWE's biggest ever.","poster_path":"\/9J7EAiWwvZy1FwnliUjphCjTMHp.jpg"},{"popularity":2.471,"vote_count":0,"video":false,"poster_path":"\/8yXjMncwRFSB46yyqETZxRSpvaJ.jpg","id":624474,"adult":false,"backdrop_path":null,"original_language":"en","original_title":"RUSH: Cinema Strangiato 2019","genre_ids":[10402],"title":"RUSH: Cinema Strangiato 2019","vote_average":0,"overview":"The Holy Trinity of Rock returns to the big screen on Wednesday, August 21, when the first \"Annual Exercise in Fan Indulgence\" Cinema Strangiato brings Rush fans together in movie theatres worldwide.  Featuring R40+, this global fan event will give audiences a special look into some of the best performances from R40 LIVE.","release_date":"2019-08-21"},{"popularity":1.567,"id":622969,"video":false,"vote_count":2,"vote_average":8.8,"title":"WWE SummerSlam 2019","release_date":"2019-08-12","original_language":"fr","original_title":"WWE SummerSlam 2019","genre_ids":[28,10751],"backdrop_path":"\/2NSuUQfqXxsPlpnw8fhEnGsCi1j.jpg","adult":false,"overview":"","poster_path":"\/3Xc7Ln3iSd2ARIAQQiZAY8eksWn.jpg"},{"popularity":1.702,"id":587356,"video":true,"vote_count":7,"vote_average":6.9,"title":"WWE Fastlane 2019","release_date":"2019-03-10","original_language":"en","original_title":"WWE Fastlane 2019","genre_ids":[],"backdrop_path":"\/5aU4cCmF6k6nUTRcPxA6cJFZmkA.jpg","adult":false,"overview":"Fastlane (2019) is a professional wrestling pay-per-view event and WWE Network event produced by WWE for their Raw and SmackDown Live brands. It took place on March 10, 2019, at the Quicken Loans Arena in Cleveland, Ohio. It is the fifth event promoted under the Fastlane chronology.","poster_path":"\/vUq23IqmK79cWhjvEPjlWThTr1H.jpg"},{"popularity":0.691,"id":580559,"video":false,"vote_count":1,"vote_average":7,"title":"2019","release_date":"2019-01-07","original_language":"en","original_title":"2019","genre_ids":[99],"backdrop_path":null,"adult":false,"overview":"A short to celebrate the new year.","poster_path":"\/3Yqui8s63XwZI7SB5ZlEeK5GRmQ.jpg"},{"popularity":2.485,"vote_count":0,"video":false,"poster_path":"\/sM6n3tymM3x4G86cSVFLPmW1p84.jpg","id":623104,"adult":false,"backdrop_path":"\/wkqOoTBQHJGIz6kmj0c3Ly8iqn5.jpg","original_language":"ja","original_title":"NJPW Super J-Cup 2019: Night 2","genre_ids":[28,18],"title":"NJPW Super J-Cup 2019: Night 2","vote_average":0,"overview":"The second night of the 7th edition of the Super J-Cup, which is a New Japan Pro-Wrestling tournament featuring a collection of sixteen Junior Heavyweight wrestlers from all over the world. Taking place at the San Francisco State University Student Life Events Center in San Francisco, California, the show features the first round winners going head-to-head.","release_date":"2019-08-24"},{"popularity":0.6,"id":615282,"video":true,"vote_count":0,"vote_average":0,"title":"Güller 2019","release_date":"","original_language":"tr","original_title":"Güller 2019","genre_ids":[18],"backdrop_path":"\/w3d2CnBse8Q2KjmjFf2Ygf0JEpY.jpg","adult":false,"overview":"","poster_path":"\/P4ktsa28AzoMp44xbXQxaK6Tiu.jpg"},{"popularity":2.096,"id":572125,"video":false,"vote_count":13,"vote_average":6.2,"title":"The 2019 Rose Parade with Cord & Tish","release_date":"2019-01-01","original_language":"en","original_title":"The 2019 Rose Parade with Cord & Tish","genre_ids":[35,99],"backdrop_path":null,"adult":false,"overview":"Cord Hosenbeck and Tish Cattigan return for their annual round of live Rose Parade coverage. Cord Hosenbeck and Tish Cattigan are no strangers to the iconic New Year’s tradition of the Rose Parade, having covered the event for the past twenty-six years. After a whirlwind year that included traveling abroad to cover the Royal Wedding, the duo are more excited than ever to return to Pasadena. The esteemed Tim Meadows will also return for the festivities.","poster_path":"\/11Qviuu3LOrGmoqyT59KeswM2N7.jpg"},{"popularity":2.433,"id":569373,"video":true,"vote_count":6,"vote_average":8.2,"title":"WWE Royal Rumble 2019","release_date":"2019-01-27","original_language":"en","original_title":"WWE Royal Rumble 2019","genre_ids":[],"backdrop_path":"\/g7KLL2lb5THKWvwl3w8KUnezUdw.jpg","adult":false,"overview":"Royal Rumble (2019) is a professional wrestling pay-per-view event and WWE Network event produced by WWE for their Raw and SmackDown brands. It will take place on January 27, 2019, at Chase Field in Phoenix, Arizona. It is the thirty-second event in it's history.","poster_path":"\/aGEDJEwI4nbRx9TFYRAkHDeqX8z.jpg"},{"popularity":1.159,"id":586090,"video":false,"vote_count":0,"vote_average":0,"title":"2019 DTS Demo Disc Vol.23","release_date":"2019-01-01","original_language":"en","original_title":"2019 DTS Demo Disc Vol.23","genre_ids":[],"backdrop_path":"\/q3VqJz7Fyp8ScfOpcTRhrKwkoOb.jpg","adult":false,"overview":"Here the latest DTS Demo Disc from the CES Show in Vegas this year. We are now at number 23 from that Demo Discs. Again as the past Discs you can find the latest Movie Clips on that Disc, also some Explanation Clips and some DTS Trailers. The running time is around 57min. and the Audio is DTS:X, DTS-HD MA 7.1 and DTS Headphone:X. A nice Disc from that series.","poster_path":"\/bsMGwjq47MB7FsD5SCOsd2BjLvp.jpg"},{"popularity":1.791,"id":626929,"video":false,"vote_count":0,"vote_average":0,"title":"Foo Fighters - Reading Festival 2019","release_date":"2019-08-25","original_language":"en","original_title":"Foo Fighters - Reading Festival 2019","genre_ids":[10402],"backdrop_path":"\/wztRXGoPBGUTyyXT6NizyfJPi5E.jpg","adult":false,"overview":"Following up their sold out shows at the London Stadium (twice) and Manchester’s Etihad, the world’s biggest rock band, Foo Fighters, will make their triumphant return to headline Reading and Leeds in 2019.  With nearly 30 million records sold, and fresh from packing out the world’s biggest venues – Dave Grohl, Taylor Hawkins, Nate Mendel, Chris Shiflett, Pat Smear and Rami Jaffee will bring their three-hour-plus rock marathon master class back to headlining Reading\/Leeds, a tradition they began in 2002.  Expect every one of the tens of thousands voices in attendance to be raised with every deafening chorus as Foo Fighters run through dozens of classics spanning their massive catalogue, from their 1995 debut through 2017’s ‘Concrete and Gold’ which went to Number 1 in more than a dozen countries including the UK and US.","poster_path":null},{"popularity":1.641,"vote_count":0,"video":false,"poster_path":"\/sM6n3tymM3x4G86cSVFLPmW1p84.jpg","id":623106,"adult":false,"backdrop_path":"\/wkqOoTBQHJGIz6kmj0c3Ly8iqn5.jpg","original_language":"ja","original_title":"NJPW Super J-Cup 2019: Night 3","genre_ids":[28,18],"title":"NJPW Super J-Cup 2019: Night 3","vote_average":0,"overview":"The third and final night of the 7th edition of the Super J-Cup, which is a New Japan Pro-Wrestling tournament featuring a collection of sixteen Junior Heavyweight wrestlers from all over the world. Taking place at the Long Beach Walter Pyramid in Long Beach, California, the show features the Quarter, Semi, and Grand Final matches.","release_date":"2019-08-25"}]}
