{
   "page":1,
   "total_results":217,
   "total_pages":11,
   "results":[
      {
         "popularity":20.756,
         "vote_count":0,
         "video":true,
         "poster_path":"\/z8DcSd6oU5WfrOAasCdqQgpDcws.jpg",
         "id":623239,
         "adult":false,
         "backdrop_path":"\/g7Jbx0fEp4XxHIUA0HYAwrZ64o.jpg",
         "original_language":"en",
         "original_title":"San Juan- La Villa",
         "genre_ids":[
            28,
            18,
            10770
         ],
         "title":"San Juan- La Villa",
         "vote_average":0,
         "overview":"The third event under the Clash of Champions WWE chronology, this year's event will be held at the Spectrum Center in Charlotte, North Carolina on September 15, 2019.",
         "release_date":"2019-09-15"
      },
      {
         "popularity":2.489,
         "id":616054,
         "video":true,
         "vote_count":5,
         "vote_average":8.3,
         "title":"San Juan- Cagua",
         "release_date":"2019-08-11",
         "original_language":"en",
         "original_title":"San Juan- Cagua",
         "genre_ids":[
            28,
            18
         ],
         "backdrop_path":"\/lyf580sAlaXCzCIDQgMBNPs7FUY.jpg",
         "adult":false,
         "overview":"SummerSlam is the thirty-second professional wrestling pay-per-view under the SummerSlam banner and is a WWE Network event produced by WWE for their Raw, SmackDown, and 205 Live brands. The event took place on August 11, 2019, at the Scotiabank Arena in Toronto, Ontario, Canada. This is the second event held in this particular venue (the other time being the 2004 event).",
         "poster_path":"\/44APxybaMMoG0hTStztU4pvHeLo.jpg"
      },
      {
         "popularity":4.042,
         "id":23807,
         "video":false,
         "vote_count":36,
         "vote_average":5.3,
         "title":"2019: San Juan- La Encrucijada",
         "release_date":"1984-12-07",
         "original_language":"en",
         "original_title":"San Juan- La Encrucijada",
         "genre_ids":[
            28,
            27,
            878
         ],
         "backdrop_path":"\/4yxwrXh0X0RTkSGJ43mXNgMgMDj.jpg",
         "adult":false,
         "overview":"After a nuclear war, society breaks down into two groups, the evil Euraks and the rebel Federation. A mercenary named Parsifal is hired by the Federation to infiltrate New York City, which is controlled by the Euraks, to rescue the only fertile woman left on Earth.",
         "poster_path":"\/lRbhD8NQfvx58804e3WG7AhhF8Z.jpg"
      },
      {
         "popularity":2.026,
         "id":611048,
         "video":false,
         "vote_count":3,
         "vote_average":8.5,
         "title":"San Juan- Valencia",
         "release_date":"2019-07-14",
         "original_language":"en",
         "original_title":"San Juan- Valencia 2",
         "genre_ids":[
            28,
            18
         ],
         "backdrop_path":"\/8MZKF3ibAIkVgeOBdT8Gi32NxWs.jpg",
         "adult":false,
         "overview":"Extreme Rules 2019 is an upcoming professional wrestling pay-per-view and WWE Network event produced by WWE for their Raw and SmackDown brands. It will take place on July 14, 2019 at the Wells Fargo Center in Philadelphia, Pennsylvania. It will be the eleventh event under the Extreme Rules chronology.",
         "poster_path":"\/5iI0mAwkduTOpHeMq6LkcGjDUuB.jpg"
      }
   ]
}
